<?xml version="1.0" encoding="UTF-8" standalone="no"?>
<!-- Created with Inkscape (http://www.inkscape.org/) -->

<svg
   xmlns:dc="http://purl.org/dc/elements/1.1/"
   xmlns:cc="http://creativecommons.org/ns#"
   xmlns:rdf="http://www.w3.org/1999/02/22-rdf-syntax-ns#"
   xmlns:svg="http://www.w3.org/2000/svg"
   xmlns="http://www.w3.org/2000/svg"
   version="1.1"
   width="744.09448"
   height="1052.3622"
   id="svg2">
  <defs
     id="defs4" />
  <metadata
     id="metadata7">
    <rdf:RDF>
      <cc:Work
         rdf:about="">
        <dc:format>image/svg+xml</dc:format>
        <dc:type
           rdf:resource="http://purl.org/dc/dcmitype/StillImage" />
        <dc:title></dc:title>
      </cc:Work>
    </rdf:RDF>
  </metadata>
  <g
     id="layer1">
    <g
       id="g2987"
       style="fill:none;stroke:none">
      <path
         d="m 224.96476,194.68694 77.80551,-114.64938 0,106.55995 -77.80551,87.26574 z"
         id="path2999"
         style="fill:#e9e9ff;fill-rule:evenodd;stroke:none" />
      <path
         d="m 94.285714,186.6479 0,96.28269 130.679046,-9.06734 0,-79.17631 z"
         id="path2989"
         style="fill:#353564;fill-rule:evenodd;stroke:none" />
      <path
         d="M 94.285714,186.6479 137.14286,32.314636 302.77027,80.03756 224.96476,194.68694 z"
         id="path2991"
         style="fill:#4d4d9f;fill-rule:evenodd;stroke:none" />
      <path
         d="m 94.285714,282.93059 42.857146,-110.56841 165.62741,14.23533 -77.80551,87.26574 z"
         id="path2997"
         style="fill:#afafde;fill-rule:evenodd;stroke:none" />
      <path
         d="m 137.14286,32.314636 0,140.047544 165.62741,14.23533 0,-106.55995 z"
         id="path2995"
         style="fill:#d7d7ff;fill-rule:evenodd;stroke:none" />
      <path
         d="m 94.285714,186.6479 42.857146,-154.333264 0,140.047544 -42.857146,110.56841 z"
         id="path2993"
         style="fill:#8686bf;fill-rule:evenodd;stroke:none" />
    </g>
    <path
       d="m 542.85715,196.6479 a 90,90 0 1 1 -180,0 90,90 0 1 1 180,0 z"
       id="path3001"
       style="fill:#ff0000;fill-rule:evenodd;stroke:#000000;stroke-width:1px;stroke-linecap:butt;stroke-linejoin:miter;stroke-opacity:1" />
    <path
       d="m 252.01092,264.3002 c -9.62529,8.14875 -23.00362,-1.0244 -26.88785,-10.65482 -7.35379,-18.2327 6.85312,-37.12275 24.32146,-41.9562 26.23649,-7.25958 51.54524,12.70492 57.02454,37.9881 7.39641,34.1293 -18.55563,66.07782 -51.65474,72.0929 -41.98816,7.63048 -80.66318,-24.40325 -87.16124,-65.32139 -7.91384,-49.83319 30.24863,-95.27809 78.98802,-102.22959 57.67146,-8.22544 109.91126,36.09256 117.29794,92.65467 8.5547,65.50599 -41.93552,124.55648 -106.32131,132.36628 -73.33829,8.89572 -139.2101,-47.77781 -147.43463,-119.98795 -9.24494,-81.16913 53.61965,-153.86978 133.65459,-162.502979 88.99901,-9.600129 168.53401,59.461169 177.57133,147.321239 1.55522,15.11974 1.07049,30.43942 -1.40901,45.4345"
       transform="translate(25.714286,157.14286)"
       id="path3003"
       style="fill:none;stroke:#000000;stroke-width:1px;stroke-linecap:butt;stroke-linejoin:miter;stroke-opacity:1" />
  </g>
</svg>
